﻿year;title;studios;producers;winner
2014;Interstellar;DreamWorks;Christopher Nolan, Emma Thomas and Lynda Obst;yes
1999;Fight Club;20th Century Fox;Art Linson, Ceán Chaffin, Ross Grayson Bell;yes
2001;Dummy 'ol Movie;Fake Studio; Regular Bob;